\relax 
\@writefile{toc}{\contentsline {section}{\numberline {1}Beschreibung}{1}}
\@writefile{lof}{\contentsline {figure}{\numberline {1}{\ignorespaces Beispiel Graph}}{1}}
\@writefile{toc}{\contentsline {section}{\numberline {2}Formalisierung}{1}}
\@writefile{toc}{\contentsline {subsection}{\numberline {2.1}Vereinfachung}{2}}
\@writefile{toc}{\contentsline {subsection}{\numberline {2.2}Rekursion}{3}}
\@writefile{toc}{\contentsline {section}{\numberline {3}Algorithmus}{3}}
